年份,粮食总产量,稻谷产量,小麦产量,玉米产量,粮食作物播种总面积,稻谷播种面积,小麦播种面积,玉米播种面积,总劳动力,化肥总用量,有效灌溉面积,用电总量,机械总动力,受灾总面积,居民粮食消费量,城镇化水平,农场品生产价格指数,城镇人口数量,城镇恩格尔系数,城镇人均收入,城镇口粮消费量,城镇饲料粮消费量,农村人口数量,农村恩格尔系数,农村人均收入,农村口粮消费量,农村饲料粮消费量,农村人均蛋类消费,农村人均肉消费,农村人均水产品消费,农村人均奶类消费,城镇人均蛋类消费,城镇人均肉消费,城镇人均水产品消费,城镇人均奶类消费,粮食出口总量,粮食进口总量
1978,30476.5,13693,5384,5594.5,120587.2,34420.87,29182.6,19961.13,28455.6,884,44965,253.1,11749.9,50807,22087.09,17.92,103.9,17245,57.5,343.4,,,79014,67.7,133.6,,,,,,,,,,,,
1979,33211.5,14375,6273,6003.5,119262.7,33872.67,29356.73,20132.93,29071.6,1086.3,45003.13,282.7,13379.5,39367,22965.74,18.96,122.1,18495,57,405,,,79047,64,160.2,,,,,,,,,,,,
1980,32055.5,13990.5,5520.5,6260,117234.27,33878.47,28844.4,20087.4,29808.4,1269.4,44888.07,320.8,14745.75,50025,23229.85,19.39,107.1,19140,56.9,477.6,,,79565,61.8,191.3,,,1.2,7.74,1.1,0.7,4.8,20,7.3,4,162,1343
1981,32502,14395.5,5964,5920.5,114957.67,33294.73,28306.73,19424.93,30677.6,1334.9,44573.8,369.9,15680.1,39786,23395.51,20.16,105.9,20171,56.7,500.4,2932863.4,1913421.06,79901,59.9,223.4,20462646.1,3128923.16,1.25,9.4,1.28,0.7,5.2,20.5,7.7,4.1,126,1481
1982,35450,16159.5,6847,6056,113462.4,33071.07,27955.33,18543,31152.7,1513.4,44176.87,396.9,16614.21,33133,23951.25,21.13,102.2,21480,58.6,535.3,3106008,2125660.8,80174,60.7,270.1,20845240,3309582.72,1.42,9.9,1.32,0.7,5.9,21,8.1,4.5,125,1612
1983,38727.5,16886.5,8139,6820.5,114047.2,33136.33,29049.87,18824.2,31645.1,1659.8,44644.07,435.2,18021.9,34713,24201.36,21.62,104.4,22274,59.2,564.6,3218593,2392673.08,80734,59.4,309.8,20982766.6,3658864.88,1.57,10.8,1.58,0.8,6.9,22.5,7.8,4.6,196,1344
1984,40730.5,17825.5,8781.5,7341,112883.93,33178.4,29576.47,18536.53,31685,1739.8,44453,464,19497.22,31887,24823.43,23.01,104,24017,58,652.1,3412815.7,2656280.2,80340,59.2,355.3,21410610,3895686.6,1.84,11.5,1.74,0.8,7.6,22.8,7,5.2,357,1045
1985,37910.8,16856.9,8580.5,6382.6,108845.13,32070.07,29218.13,17694.07,30351.3,1775.8,44035.9,508.9,20912.5,44365,24087.26,23.71,108.6,25094,53.3,739.1,3382671.2,2983174.72,80757,57.8,397.6,20794927.5,4127490.27,2.05,12,1.64,0.8,8.8,24,8,6.4,932,600
1986,39151.2,17222.4,9004,7085.6,110932.6,32266.13,29616.27,19123.67,30467.9,1930.6,44225.8,586.7,22950,47135,24675.73,24.52,106.4,26366,52.4,900.9,3635871.4,3121998.06,81141,56.4,423.8,21039861.3,4451395.26,2.08,12.9,1.87,1.4,7.1,25.3,8.2,4.7,942,773
1987,40297.7,17426.2,8590.2,7924.1,111267.77,32192.8,28797.93,20211.67,30870,1999.3,44403,658.8,24836,42086,24879.33,25.32,112,27674,53.5,1002.1,3705548.6,3257506.54,81626,55.8,462.6,21173784.4,4513101.54,2.25,12.9,1.96,1.1,6.6,25.4,7.9,5.5,737,1628
1988,39408.1,16910.7,8543.2,7735.1,110122.6,31987.47,28784.8,19691.8,31455.7,2141.5,44375.91,712,26575,50874,25306.01,25.81,123,28661,51.4,1180.2,3932289.2,3201720.31,82365,54,544.9,21373717.5,4276390.8,2.28,12,1.91,1.1,6.9,23.7,7.1,5.1,717,1533
1989,40754.9,18013,9080.7,7892.8,112204.67,32700.4,29841.4,20353.27,32440.5,2357.1,44917.2,790.5,28067,46991,25769.32,26.21,115,29540,54.5,1373.9,3955406,3330339.6,83164,54.8,601.5,21813917.2,4435136.12,2.41,12.3,2.1,1,7.1,23.9,7.6,4.2,656,1658
1990,44624.3,18933.1,9822.9,9681.9,113465.87,33064.47,30753.2,21401.47,33336.4,2590.3,47403.1,844.5,28707.7,38474,25999.06,26.41,97.4,30195,54.2,1510.2,3946486.5,3572974.35,84138,58.8,686.3,22052569.8,4584679.62,2.41,12.6,2.13,1.1,7.3,25.2,7.7,4.6,583,1372
1991,43529.3,18381.3,9595.3,9877.3,112313.6,32590,30947.87,21574.27,34186.3,2805.1,47822.1,963.2,29388.6,55472,25619.74,26.94,98,31203,53.8,1700.6,3990863.7,3943435.14,84620,57.6,708.6,21628872,4973117.4,2.73,13.5,2.21,1.3,8.3,26.6,8,4.7,1086,1345
1992,44265.8,18622.2,10158.7,9538.3,110559.7,32090.2,30495.8,21043.5,34037,2930.2,48590.1,1106.9,30308.4,51332,24879.01,27.46,103.4,32175,53,2026.6,3587512.5,4174062.75,84996,57.6,784,21291498,4990115.16,2.85,13.3,2.25,1.5,9.5,26.5,8.2,5.5,1364,1175
1993,45648.8,17751.4,10639,10270.4,110508.7,30355.2,30234.6,20694.1,33258.2,3151.9,48727.9,1244.9,31816.6,48827,24733.94,27.99,113.4,33173,50.3,2577.4,3244319.4,4184110.49,85344,58.1,921.6,21489619.2,5002011.84,2.88,13.3,2.47,0.9,8.9,26,8,5.4,1535,752
1994,44510.1,17593.3,9929.7,9927.5,109543.7,30171.4,28980.6,21152.1,32690.3,3317.9,48759.1,1473.9,33802.5,55046,25546.41,28.51,139.9,34169,50,3496.2,3474987.3,4173743.35,85681,58.9,1221,22071425.6,4821269.87,3.03,12.6,2.68,0.7,9.7,24.3,8.5,5.3,1346,920
1995,46661.8,18522.6,10220.7,11198.6,110060.4,30744.1,28860.2,22775.7,32334.5,3593.7,49281.2,1655.7,36118.1,45824,25422.9,29.04,119.9,35174,50.1,4283,3411878,4202941.26,85947,58.6,1577.7,22011026.7,5051105.19,3.22,13.1,3.06,0.6,9.7,23.6,9.2,4.6,214,2081
1996,50453.5,19510.27,11056.9,12747.1,112547.92,31405.6,29610.54,24498.15,32260.4,3827.9,50381.4,1812.7,38546.9,46991,25331.47,30.48,104.2,37304,48.8,4838.9,3532688.8,4755513.92,85085,56.3,1926.1,21798777,5600294.7,3.35,14.8,3.37,0.8,9.6,25.8,9.25,4.8,144,1200
1997,49417.1,20073.48,12328.9,10430.87,112912.1,31764.87,30056.69,23775.09,32677.89,3980.7,51238.5,1980.1,42015.6,53429,24598.36,31.91,95.5,39449,46.6,5160.3,3495181.4,5151644.91,84177,55.1,2090.1,21103173.9,5804845.92,4.08,15.1,3.38,1,11.1,25.5,9.3,5.1,859,705
1998,51229.53,19871.3,10972.6,13295.4,113787.4,31213.8,29774.05,25238.84,32626.4,4083.7,52295.6,2042.2,45207.7,50145,24304.2,33.35,92,41608,44.7,5425.1,3607413.6,5364353.008,83153,53.4,2162,20696781.7,5849813.55,4.11,15.5,3.31,0.9,10.2,25.5,9.84,6.2,906,708
1999,50838.58,19848.73,11388,12808.63,113160.98,31283.49,28855.07,25903.71,32911.76,4124.32,53158.41,2173.45,48996.12,49980,24018.61,34.78,87.8,43748,42.1,5854,3714205.2,5962414.92,82038,52.6,2210.3,20304405,6096243.78,4.3,16.4,3.8,1,10.9,26.7,10.3,7.9,758,772
2000,46217.52,18790.77,9963.6,10599.98,108462.54,29961.72,26653.28,23056.11,32797.5,4146.41,53820.33,2421.3,52573.61,54688,24003.48,36.22,96.4,45906,39.4,6280,3778063.8,6144518.1,80837,49.1,2253.4,20225417.4,6691686.86,4.8,18.3,3.9,1.1,11.2,25.4,11.7,9.9,1402,1357
2001,45263.67,17758.03,9387.3,11408.77,106080.03,28812.38,24663.76,24282.05,32451.01,4253.76,54249.39,2610.78,55172.1,52215,22814.43,37.66,103.1,48064,38.2,6859.6,3830700.8,6546893.568,79563,47.7,2366.4,18983731.8,6545648.01,4.7,18.2,4.1,1.2,10.4,26.5,10.33,11.9,903,1738
2002,45705.75,17453.85,9029,12130.76,103890.83,28201.6,23908.31,24633.71,31990.58,4339.39,54354.9,2993.4,57929.85,46946,22445.64,39.09,99.7,50212,37.7,7702.8,3941642,8134344,78241,46.2,2475.6,18503996.5,6562072.67,4.7,18.6,4.4,1.2,10.6,32.5,13.2,15.7,1514,1417
2003,43069.53,16065.56,8648.8,11583.02,99410.37,26507.83,21996.92,24068.16,31259.63,4411.56,54014.23,3432.92,60386.54,54506,21255.55,40.53,104.4,52376,37.1,8472.2,4163892,8727412.88,76851,45.6,2622.2,17091662.4,6807461.58,4.8,19.7,4.3,1.7,11.2,32.9,13.4,18.6,2149,2278
2004,46946.95,17908.76,9195.18,13028.71,101606.03,28378.8,21625.97,25445.67,30596,4636.58,54478.42,3933.03,64027.91,37106,20771.33,41.76,113.1,54283,37.7,9421.6,4244930.6,8190761.87,75705,47.2,2936.4,16526401.5,6530313.3,4.6,19.2,4.5,2,10.4,29.3,12.5,18.8,514,2993
2005,48402.19,18058.84,9744.51,13936.54,104278.38,28847.18,22792.57,26358.3,29975.54,4766.22,55029.34,4375.7,68397.85,38818,19893.11,42.99,101.4,56212,36.7,10493,4328324,9207525.6,74544,45.5,3254.9,15572241.6,7378365.12,4.7,22.4,4.9,2.9,10.4,32.9,12.6,17.9,1059,3280
2006,49804.23,18171.83,10846.59,15160.3,104957.7,28937.89,23613,28462.98,29418.41,4927.69,55750.5,4895.8,72522.12,41091,19465.76,44.34,101.2,58288,35.8,11759.5,4424059.2,9396025.6,73160,43,3587,15041696,7283809.6,5,22.3,5,3.1,10.4,29.3,13,18.3,650,3178
2007,50160.28,18603.4,10929.8,15230.05,105638.36,28918.81,23720.62,29477.51,28640.68,5107.83,56518.34,5509.9,76589.56,48992,19035.27,45.89,118.5,60633,36.3,13785.8,4705120.8,9704311.65,71496,43.1,4140.4,14263452,6609805.2,4.7,20.5,5.4,3.5,10.3,32.9,14.2,17.8,1039,3237
2008,52870.92,19189.57,11246.41,16591.4,106792.65,29241.07,23617.18,29863.71,28363.6,5239.02,58471.68,5713.15,82190.41,39990,17985.27,46.99,114.1,62403,37.9,15780.8,3650575.5,9777926.07,70399,43.7,4760.6,14016440.9,6554146.9,5.4,20.2,5.2,3.4,10.7,32.1,11.9,15.2,235,3898
2009,53082.08,19510.3,11511.51,16397.36,108985.75,29626.92,24290.76,31182.64,28065.26,5404.4,59261.4,6104.44,87496.1,47214,18294.79,48.34,97.6,64512,36.5,17174.7,5244825.6,10924462.08,68938,41,5153.2,13049963.4,6740757.64,5.3,21.5,5.3,3.6,10.6,31.8,12.2,14.9,173,4570
2010,54647.71,19576.1,11518.08,17724.51,109876.09,29873.36,24256.53,32500.12,27694.77,5561.68,60347.7,6632.35,92780.48,37425.9,17633.01,49.95,110.9,66978,35.7,19109.4,5458707,11283783.66,67113,41.1,5919,12174298.2,6697206.27,5.1,22.2,5.2,3.6,10,31.2,15.2,14,275,6696
2011,57120.85,20100.09,11740.09,19278.11,110573.02,30057.04,24270.38,33541.67,27355.42,5704.24,61681.56,7139.62,97734.66,32470.5,16782.15,51.27,116.5,69079,36.3,21809.8,5574675.3,11757245.8,65656,40.4,6977.3,11207479.2,6929990.8,5.4,23.3,5.4,5.2,10.1,34.7,14.6,13.7,288,6102
2012,58957.97,20423.59,12102.36,20561.41,111204.59,30137.11,24268.26,35029.82,27032.25,5838.85,62490.52,7508.46,102558.96,24962,16160.82,52.57,102.7,71182,36.2,24564.7,5609141.6,12351500.64,64222,39.3,7916.6,10551674.6,6916067.18,5.9,23.5,5.4,5.3,10.5,34.7,15.2,14,277,8025
2013,60193.84,20361.22,12192.64,21848.9,111955.56,30311.75,24117.26,36318.4,27182.25,5911.86,63473.3,8549.52,103906.75,31349.8,20106902.8,53.7,103.2,73111,35,26955.1,8868364.3,10599632.78,62961,37.7,8895.9,11238538.5,6753826.47,7,22.4,6.6,5.7,9.4,36.6,14,17.1,243,8645
2014,60702.6,20650.7,12620.8,21564.6,112722.58,30309.87,24069.42,37123.39,27028.05,5995.9,64539.5,8884.4,107600,24891,19148896.8,54.8,99.8,74916,34.2,29381,8780155.2,10963956.6,61866,37.8,9892,10368741.6,6719266.26,7.2,22.5,6.8,6.4,9.8,37.5,14.4,18.1,150,9649
2015,62143.92,20822.52,13018.52,22463.16,113342.93,30215.74,24141.37,38119.31,26920,6022.6,65872.6,9026.92,111728.07,21770,18308448.6,56.1,101.7,77116,34.8,31790.3,8683261.6,11545036.36,60346,37.1,10772,9625187,6874012.86,8.3,23.1,7.2,6.3,10.5,38.3,14.7,17.1,104,12078
